nombre,lados,area,perimetro
triangulo,"{'a': 32.00948135261552, 'b': 22.53066691682843, 'c': 20.98960609189278}",235.68198289424308,75.52975436133673
triangulo,"{'a': 82.29853079855569, 'b': 21.285231047852644, 'c': 71.35380554189653}",694.5001364658202,174.93756738830487
triangulo,"{'a': 64.68311447513487, 'b': 39.89894672425114, 'c': 54.72840928956495}",1087.1393872913218,159.31047048895095
cuadrado,"{'a': 9.935114502957425, 'b': 9.935114502957425}",98.70650018687498,39.7404580118297
cuadrado,"{'a': 51.847085340019206, 'b': 51.847085340019206}",2688.1202582552346,207.38834136007682
triangulo,"{'a': 67.68557691725549, 'b': 40.94045842821144, 'c': 86.47639562396954}",1351.5124845330356,195.10243096943645
