<?xml version="1.0" encoding="UTF-8" standalone="no"?>
<!-- Created with Inkscape (http://www.inkscape.org/) -->

<svg
   width="210mm"
   height="297mm"
   viewBox="0 0 210 297"
   version="1.1"
   id="svg5"
   inkscape:version="1.2.2 (b0a8486541, 2022-12-01)"
   sodipodi:docname="portada.svg"
   xmlns:inkscape="http://www.inkscape.org/namespaces/inkscape"
   xmlns:sodipodi="http://sodipodi.sourceforge.net/DTD/sodipodi-0.dtd"
   xmlns="http://www.w3.org/2000/svg"
   xmlns:svg="http://www.w3.org/2000/svg">
  <sodipodi:namedview
     id="namedview7"
     pagecolor="#ffffff"
     bordercolor="#000000"
     borderopacity="0.25"
     inkscape:showpageshadow="2"
     inkscape:pageopacity="0.0"
     inkscape:pagecheckerboard="0"
     inkscape:deskcolor="#d1d1d1"
     inkscape:document-units="mm"
     showgrid="false"
     inkscape:zoom="1.8957351"
     inkscape:cx="345.5124"
     inkscape:cy="524.0711"
     inkscape:window-width="1920"
     inkscape:window-height="1056"
     inkscape:window-x="1366"
     inkscape:window-y="0"
     inkscape:window-maximized="1"
     inkscape:current-layer="layer1" />
  <defs
     id="defs2">
    <rect
       x="97.986382"
       y="348.76304"
       width="578.97417"
       height="88.739736"
       id="rect113" />
    <rect
       x="97.986382"
       y="348.76304"
       width="578.97417"
       height="88.739736"
       id="rect279" />
  </defs>
  <g
     inkscape:label="Capa 1"
     inkscape:groupmode="layer"
     id="layer1">
    <text
       xml:space="preserve"
       transform="matrix(0.75742967,0,0,0.75742967,-190.4574,-172.73779)"
       id="text111"
       style="text-align:center;white-space:pre;shape-inside:url(#rect113);fill:#000000"
       x="98.89798"
       y="0"><tspan
         x="334.06765"
         y="359.68217"
         id="tspan313">Sesión 4, módulo 2
</tspan><tspan
         x="387.47363"
         y="374.68217"
         id="tspan315">
</tspan><tspan
         x="287.78366"
         y="389.68217"
         id="tspan317">Curso de programación con python</tspan></text>
    <text
       xml:space="preserve"
       transform="matrix(0.8644336,0,0,0.8644336,-50.17,-159.63118)"
       id="text277"
       style="text-align:start;white-space:pre;shape-inside:url(#rect279);fill:#000000"
       x="20.579985"
       y="0"><tspan
         x="97.986328"
         y="359.68217"
         id="tspan319">- Animaciones en Canvas TK
</tspan><tspan
         x="97.986328"
         y="374.68217"
         id="tspan321">- Creación de objetos
</tspan><tspan
         x="97.986328"
         y="389.68217"
         id="tspan323">- Dibujo y simulación</tspan></text>
    <text
       xml:space="preserve"
       style="font-size:5.02942px;text-align:start;text-anchor:start;fill:#000000;stroke-width:0.419118"
       x="175.20445"
       y="87.061211"
       id="text283"><tspan
         sodipodi:role="line"
         id="tspan281"
         style="stroke-width:0.419118"
         x="175.20445"
         y="87.061211">4 julio2024</tspan></text>
  </g>
</svg>
