<?xml version="1.0" encoding="UTF-8" standalone="no"?>
<!-- Created with Inkscape (http://www.inkscape.org/) -->

<svg
   xmlns:dc="http://purl.org/dc/elements/1.1/"
   xmlns:cc="http://creativecommons.org/ns#"
   xmlns:rdf="http://www.w3.org/1999/02/22-rdf-syntax-ns#"
   xmlns:svg="http://www.w3.org/2000/svg"
   xmlns="http://www.w3.org/2000/svg"
   xmlns:sodipodi="http://sodipodi.sourceforge.net/DTD/sodipodi-0.dtd"
   xmlns:inkscape="http://www.inkscape.org/namespaces/inkscape"
   width="203.68295mm"
   height="98.982513mm"
   viewBox="0 0 203.68295 98.982513"
   version="1.1"
   id="svg895"
   inkscape:version="0.92.4 (5da689c313, 2019-01-14)"
   sodipodi:docname="dato_util.svg"
   inkscape:export-filename="/home/david/Documentos/CursosQuux/AnalisisDatosPython/Clase_1:_Lectura_y_escritura_de_archivos_de_texto/img/dato_util.png"
   inkscape:export-xdpi="150"
   inkscape:export-ydpi="150">
  <defs
     id="defs889">
    <marker
       inkscape:isstock="true"
       style="overflow:visible"
       id="marker1836"
       refX="0"
       refY="0"
       orient="auto"
       inkscape:stockid="Arrow1Mend">
      <path
         transform="matrix(-0.4,0,0,-0.4,-4,0)"
         style="fill:#000000;fill-opacity:1;fill-rule:evenodd;stroke:#000000;stroke-width:1.00000003pt;stroke-opacity:1"
         d="M 0,0 5,-5 -12.5,0 5,5 Z"
         id="path1834"
         inkscape:connector-curvature="0" />
    </marker>
    <marker
       inkscape:stockid="Arrow1Mend"
       orient="auto"
       refY="0"
       refX="0"
       id="Arrow1Mend"
       style="overflow:visible"
       inkscape:isstock="true"
       inkscape:collect="always">
      <path
         id="path1523"
         d="M 0,0 5,-5 -12.5,0 5,5 Z"
         style="fill:#000000;fill-opacity:1;fill-rule:evenodd;stroke:#000000;stroke-width:1.00000003pt;stroke-opacity:1"
         transform="matrix(-0.4,0,0,-0.4,-4,0)"
         inkscape:connector-curvature="0" />
    </marker>
  </defs>
  <sodipodi:namedview
     id="base"
     pagecolor="#ffffff"
     bordercolor="#666666"
     borderopacity="1.0"
     inkscape:pageopacity="0.0"
     inkscape:pageshadow="2"
     inkscape:zoom="0.49497475"
     inkscape:cx="440.78281"
     inkscape:cy="-35.598667"
     inkscape:document-units="mm"
     inkscape:current-layer="layer1"
     showgrid="false"
     fit-margin-top="0"
     fit-margin-left="0"
     fit-margin-right="0"
     fit-margin-bottom="0"
     inkscape:window-width="1366"
     inkscape:window-height="707"
     inkscape:window-x="0"
     inkscape:window-y="0"
     inkscape:window-maximized="1" />
  <metadata
     id="metadata892">
    <rdf:RDF>
      <cc:Work
         rdf:about="">
        <dc:format>image/svg+xml</dc:format>
        <dc:type
           rdf:resource="http://purl.org/dc/dcmitype/StillImage" />
        <dc:title></dc:title>
      </cc:Work>
    </rdf:RDF>
  </metadata>
  <g
     inkscape:label="Capa 1"
     inkscape:groupmode="layer"
     id="layer1"
     transform="translate(-5.7264875,-100.27152)">
    <g
       id="g2474">
      <rect
         ry="1.564941"
         y="148.77858"
         x="29.520575"
         height="3.1298821"
         width="161.90024"
         id="rect927"
         style="fill:#0000ff;fill-opacity:1;stroke:none;stroke-width:0.3983486;stroke-miterlimit:4;stroke-dasharray:none;stroke-dashoffset:0;stroke-opacity:1" />
      <rect
         ry="3.4144161"
         y="137.11504"
         x="51.002937"
         height="28.168938"
         width="28.168938"
         id="rect905"
         style="fill:#ff0000;fill-opacity:1;stroke:none;stroke-width:0.3983486;stroke-miterlimit:4;stroke-dasharray:none;stroke-dashoffset:0;stroke-opacity:1" />
      <rect
         style="fill:#9dd400;fill-opacity:1;stroke:none;stroke-width:0.3983486;stroke-miterlimit:4;stroke-dasharray:none;stroke-dashoffset:0;stroke-opacity:1"
         id="rect907"
         width="28.168938"
         height="28.168938"
         x="96.38623"
         y="137.11504"
         ry="3.4144161" />
      <rect
         ry="3.4144161"
         y="137.11504"
         x="141.76952"
         height="28.168938"
         width="28.168938"
         id="rect909"
         style="fill:#ffa100;fill-opacity:1;stroke:none;stroke-width:0.3983486;stroke-miterlimit:4;stroke-dasharray:none;stroke-dashoffset:0;stroke-opacity:1" />
      <text
         id="text901"
         y="109.01495"
         x="112.87503"
         style="font-style:normal;font-weight:normal;font-size:10.93196201px;line-height:1.25;font-family:sans-serif;text-align:center;letter-spacing:0px;word-spacing:0px;text-anchor:middle;fill:#000000;fill-opacity:1;stroke:none;stroke-width:0.27329907"
         xml:space="preserve"><tspan
           id="tspan1506"
           style="text-align:center;text-anchor:middle;stroke-width:0.27329907"
           y="109.01495"
           x="112.87503"
           sodipodi:role="line">Producir un dato útil</tspan></text>
      <circle
         r="7.5234184"
         cy="151.19951"
         cx="20.206093"
         id="path897"
         style="fill:#ff7f2a;fill-opacity:1;stroke:none;stroke-width:0.31032518;stroke-miterlimit:4;stroke-dasharray:none;stroke-dashoffset:0;stroke-opacity:1" />
      <path
         inkscape:transform-center-y="-2.1316296"
         d="m 208.25872,157.59442 -7.38421,0 -7.38421,0 3.69211,-6.39491 3.6921,-6.39492 3.69211,6.39492 z"
         inkscape:randomized="0"
         inkscape:rounded="0"
         inkscape:flatsided="false"
         sodipodi:arg2="1.5707963"
         sodipodi:arg1="0.52359878"
         sodipodi:r2="4.2632756"
         sodipodi:r1="8.5265512"
         sodipodi:cy="153.33115"
         sodipodi:cx="200.87451"
         sodipodi:sides="3"
         id="path911"
         style="fill:#ff2a58;fill-opacity:1;stroke:none;stroke-width:0.3983486;stroke-miterlimit:4;stroke-dasharray:none;stroke-dashoffset:0;stroke-opacity:1"
         sodipodi:type="star" />
      <text
         id="text1482"
         y="171.19615"
         x="19.867085"
         style="font-style:normal;font-weight:normal;font-size:7.96697187px;line-height:1.25;font-family:sans-serif;text-align:center;letter-spacing:0px;word-spacing:0px;text-anchor:middle;fill:#000000;fill-opacity:1;stroke:none;stroke-width:0.1991743"
         xml:space="preserve"><tspan
           style="text-align:center;text-anchor:middle;stroke-width:0.1991743"
           y="171.19615"
           x="19.867085"
           id="tspan1480"
           sodipodi:role="line">archivo</tspan><tspan
           id="tspan2446"
           style="text-align:center;text-anchor:middle;stroke-width:0.1991743"
           y="181.15486"
           x="19.867085"
           sodipodi:role="line">db</tspan></text>
      <text
         xml:space="preserve"
         style="font-style:normal;font-weight:normal;font-size:5.98952579px;line-height:1.25;font-family:sans-serif;letter-spacing:0px;word-spacing:0px;fill:#000000;fill-opacity:1;stroke:none;stroke-width:0.14973815"
         x="50.036087"
         y="175.65048"
         id="text1490"><tspan
           sodipodi:role="line"
           id="tspan1488"
           x="50.036087"
           y="175.65048"
           style="stroke-width:0.14973815">validación</tspan></text>
      <text
         id="text1494"
         y="175.65048"
         x="87.906158"
         style="font-style:normal;font-weight:normal;font-size:5.98952579px;line-height:1.25;font-family:sans-serif;letter-spacing:0px;word-spacing:0px;fill:#000000;fill-opacity:1;stroke:none;stroke-width:0.14973815"
         xml:space="preserve"><tspan
           style="stroke-width:0.14973815"
           y="175.65048"
           x="87.906158"
           id="tspan1492"
           sodipodi:role="line">transformación</tspan></text>
      <text
         xml:space="preserve"
         style="font-style:normal;font-weight:normal;font-size:5.98952579px;line-height:1.25;font-family:sans-serif;letter-spacing:0px;word-spacing:0px;fill:#000000;fill-opacity:1;stroke:none;stroke-width:0.14973815"
         x="139.10934"
         y="175.65048"
         id="text1498"><tspan
           sodipodi:role="line"
           id="tspan1496"
           x="139.10934"
           y="175.65048"
           style="stroke-width:0.14973815">agrupación</tspan></text>
      <text
         xml:space="preserve"
         style="font-style:normal;font-weight:normal;font-size:7.96697187px;line-height:1.25;font-family:sans-serif;text-align:center;letter-spacing:0px;word-spacing:0px;text-anchor:middle;fill:#000000;fill-opacity:1;stroke:none;stroke-width:0.1991743"
         x="200.87062"
         y="168.78178"
         id="text1502"><tspan
           sodipodi:role="line"
           id="tspan1500"
           x="200.87062"
           y="168.78178"
           style="text-align:center;text-anchor:middle;stroke-width:0.1991743">dato</tspan><tspan
           id="tspan1510"
           sodipodi:role="line"
           x="200.87062"
           y="178.74049"
           style="text-align:center;text-anchor:middle;stroke-width:0.1991743">útil</tspan></text>
      <path
         inkscape:connector-curvature="0"
         id="path1512"
         d="M 44.47171,130.06222 H 182.49246"
         style="fill:none;stroke:#000000;stroke-width:1.99174297;stroke-linecap:butt;stroke-linejoin:miter;stroke-miterlimit:4;stroke-dasharray:none;stroke-opacity:1;marker-end:url(#Arrow1Mend)" />
      <path
         style="fill:none;stroke:#000000;stroke-width:1.99174297;stroke-linecap:butt;stroke-linejoin:miter;stroke-miterlimit:4;stroke-dasharray:none;stroke-opacity:1;marker-end:url(#marker1836)"
         d="M 186.41755,189.24545 H 48.3968"
         id="path1832"
         inkscape:connector-curvature="0" />
      <text
         id="text2164"
         y="124.87766"
         x="101.50632"
         style="font-style:normal;font-weight:normal;font-size:7.96697187px;line-height:1.25;font-family:sans-serif;letter-spacing:0px;word-spacing:0px;fill:#000000;fill-opacity:1;stroke:none;stroke-width:0.1991743"
         xml:space="preserve"><tspan
           style="stroke-width:0.1991743"
           y="124.87766"
           x="101.50632"
           id="tspan2162"
           sodipodi:role="line">lectura</tspan></text>
      <text
         xml:space="preserve"
         style="font-style:normal;font-weight:normal;font-size:7.96697187px;line-height:1.25;font-family:sans-serif;letter-spacing:0px;word-spacing:0px;fill:#000000;fill-opacity:1;stroke:none;stroke-width:0.1991743"
         x="101.50632"
         y="199.14122"
         id="text2192"><tspan
           sodipodi:role="line"
           id="tspan2190"
           x="101.50632"
           y="199.14122"
           style="stroke-width:0.1991743">escritura</tspan></text>
    </g>
  </g>
</svg>
