<?xml version='1.0' encoding='UTF-8'?>
<!-- This file was generated by dvisvgm 2.13.1 -->
<svg version='1.1' xmlns='http://www.w3.org/2000/svg' xmlns:xlink='http://www.w3.org/1999/xlink' width='664.094363pt' height='67.706523pt' viewBox='493.404734 45.087814 664.094363 67.706523'>
<defs>
<path id='g0-40' d='M3.158157-7.47198C3.01868-7.422167 2.839352-7.222914 2.719801-7.103362C1.494396-5.877958 .996264-4.184309 .996264-2.500623C.996264-.697385 1.58406 1.225405 3.048568 2.400996C3.098381 2.430884 3.158157 2.480697 3.217933 2.480697S3.307597 2.420922 3.307597 2.381071C3.307597 2.271482 3.038605 2.062267 2.929016 1.932752C1.902864 .707347 1.58406-.926526 1.58406-2.49066C1.58406-4.134496 1.912827-5.937733 3.148194-7.173101C3.20797-7.232877 3.307597-7.302615 3.307597-7.382316C3.307597-7.442092 3.257783-7.481943 3.198007-7.481943C3.188045-7.481943 3.16812-7.47198 3.158157-7.47198Z'/>
<path id='g0-41' d='M.617684-7.47198C.577833-7.452055 .557908-7.422167 .557908-7.392279C.557908-7.272727 .787049-7.103362 .896638-6.983811C1.96264-5.748443 2.281445-4.064757 2.281445-2.49066C2.281445-.886675 1.952677 .936488 .757161 2.132005C.687422 2.201743 .557908 2.30137 .557908 2.381071C.557908 2.430884 .607721 2.480697 .667497 2.480697H.67746C.797011 2.460772 .996264 2.251557 1.115816 2.132005C2.371108 .876712 2.86924-.816936 2.86924-2.510585C2.86924-4.343711 2.271482-6.166874 .816936-7.402242C.767123-7.43213 .71731-7.481943 .657534-7.481943C.647572-7.481943 .637609-7.481943 .617684-7.47198Z'/>
<path id='g0-49' d='M.896638-6.007472V-5.69863C1.325031-5.69863 1.803238-5.748443 2.191781-5.957659V-.757161C2.191781-.368618 1.8132-.308842 1.424658-.308842C1.255293-.308842 1.085928-.318804 .946451-.318804V-.009963H4.184309V-.318804C4.014944-.318804 3.845579-.308842 3.686177-.308842C3.287671-.308842 2.938979-.368618 2.938979-.747198V-6.485679C2.938979-6.575342 2.909091-6.645081 2.799502-6.645081C2.660025-6.645081 2.49066-6.455791 2.381071-6.37609C1.942715-6.087173 1.404732-6.007472 .896638-6.007472Z'/>
<path id='g4-49' d='M2.336239-4.435367C2.336239-4.623661 2.322291-4.630635 2.127024-4.630635C1.680697-4.191283 1.046077-4.184309 .760149-4.184309V-3.93325C.927522-3.93325 1.387796-3.93325 1.771357-4.128518V-.571856C1.771357-.341719 1.771357-.251059 1.073973-.251059H.808966V0C.934496-.006974 1.792279-.027895 2.050311-.027895C2.266501-.027895 3.145205-.006974 3.29863 0V-.251059H3.033624C2.336239-.251059 2.336239-.341719 2.336239-.571856V-4.435367Z'/>
<path id='g4-61' d='M5.355915-2.343213C5.460523-2.343213 5.620922-2.343213 5.620922-2.517559C5.620922-2.684932 5.453549-2.684932 5.362889-2.684932H.746202C.655542-2.684932 .488169-2.684932 .488169-2.517559C.488169-2.343213 .648568-2.343213 .753176-2.343213H5.355915ZM5.362889-.808966C5.453549-.808966 5.620922-.808966 5.620922-.976339C5.620922-1.150685 5.460523-1.150685 5.355915-1.150685H.753176C.648568-1.150685 .488169-1.150685 .488169-.976339C.488169-.808966 .655542-.808966 .746202-.808966H5.362889Z'/>
<path id='g5-89' d='M12.164384 13.947696V13.409714C10.839352 13.409714 10.530511 12.951432 10.530511 12.313823V1.633873C10.530511 .986301 10.849315 .537983 12.164384 .537983V0H.557908V.537983C1.882939 .537983 2.191781 .996264 2.191781 1.633873V12.313823C2.191781 12.961395 1.872976 13.409714 .557908 13.409714V13.947696H5.349938V13.409714C4.024907 13.409714 3.716065 12.951432 3.716065 12.313823V.537983H9.006227V12.313823C9.006227 12.961395 8.687422 13.409714 7.372354 13.409714V13.947696H12.164384Z'/>
<path id='g2-78' d='M5.816189-4.002989C5.885928-4.267995 5.997509-4.498132 6.555417-4.51208C6.590286-4.51208 6.694894-4.519054 6.694894-4.665504C6.694894-4.707347 6.660025-4.763138 6.590286-4.763138C6.360149-4.763138 6.102117-4.735243 5.865006-4.735243C5.697634-4.735243 5.293151-4.763138 5.125778-4.763138C5.090909-4.763138 4.986301-4.763138 4.986301-4.609714C4.986301-4.519054 5.076961-4.51208 5.139726-4.51208C5.467497-4.505106 5.586052-4.400498 5.586052-4.226152C5.586052-4.170361 5.579078-4.135492 5.558157-4.05878L4.798007-1.018182L3.02665-4.644583C2.970859-4.763138 2.956912-4.763138 2.789539-4.763138H1.834122C1.701619-4.763138 1.610959-4.763138 1.610959-4.609714C1.610959-4.51208 1.694645-4.51208 1.841096-4.51208S2.140971-4.505106 2.287422-4.47721L1.352927-.746202C1.290162-.481196 1.171606-.27198 .627646-.251059C.578829-.251059 .481196-.244085 .481196-.104608C.481196-.027895 .536986 0 .585803 0C.81594 0 1.073973-.027895 1.311083-.027895C1.478456-.027895 1.882939 0 2.050311 0C2.12005 0 2.189788-.034869 2.189788-.146451C2.189788-.244085 2.106102-.251059 2.02939-.251059C1.590037-.265006 1.590037-.446326 1.590037-.54396C1.590037-.571856 1.590037-.606725 1.617933-.718306L2.510585-4.288917L4.546949-.118555C4.60274-.006974 4.630635 0 4.700374 0C4.811955 0 4.811955-.020922 4.846824-.146451L5.816189-4.002989Z'/>
<path id='g2-105' d='M2.259527-4.358655C2.259527-4.470237 2.175841-4.623661 1.980573-4.623661C1.792279-4.623661 1.590037-4.442341 1.590037-4.2401C1.590037-4.121544 1.680697-3.975093 1.868991-3.975093C2.071233-3.975093 2.259527-4.170361 2.259527-4.358655ZM.836862-.81594C.808966-.72528 .774097-.641594 .774097-.523039C.774097-.195268 1.053051 .069738 1.436613 .069738C2.133998 .069738 2.440847-.892653 2.440847-.99726C2.440847-1.08792 2.350187-1.08792 2.329265-1.08792C2.231631-1.08792 2.224658-1.046077 2.196762-.969365C2.036364-.411457 1.729514-.125529 1.457534-.125529C1.318057-.125529 1.283188-.216189 1.283188-.369614C1.283188-.530012 1.332005-.662516 1.39477-.81594C1.464508-1.004234 1.54122-1.192528 1.617933-1.373848C1.680697-1.54122 1.931756-2.175841 1.959651-2.259527C1.980573-2.329265 2.001494-2.412951 2.001494-2.48269C2.001494-2.810461 1.72254-3.075467 1.338979-3.075467C.648568-3.075467 .327771-2.127024 .327771-2.008468C.327771-1.917808 .425405-1.917808 .446326-1.917808C.54396-1.917808 .550934-1.952677 .571856-2.02939C.753176-2.629141 1.060025-2.880199 1.318057-2.880199C1.429639-2.880199 1.492403-2.824408 1.492403-2.636115C1.492403-2.475716 1.45056-2.371108 1.276214-1.93873L.836862-.81594Z'/>
<path id='g3-61' d='M6.844334-3.257783C6.993773-3.257783 7.183064-3.257783 7.183064-3.457036S6.993773-3.656289 6.854296-3.656289H.886675C.747198-3.656289 .557908-3.656289 .557908-3.457036S.747198-3.257783 .896638-3.257783H6.844334ZM6.854296-1.325031C6.993773-1.325031 7.183064-1.325031 7.183064-1.524284S6.993773-1.723537 6.844334-1.723537H.896638C.747198-1.723537 .557908-1.723537 .557908-1.524284S.747198-1.325031 .886675-1.325031H6.854296Z'/>
<path id='g1-81' d='M4.363636-.059776C5.907846-.647572 7.372354-2.420922 7.372354-4.343711C7.372354-5.947696 6.316314-7.023661 4.83188-7.023661C2.67995-7.023661 .488169-4.762142 .488169-2.440847C.488169-.787049 1.603985 .219178 3.038605 .219178C3.287671 .219178 3.626401 .179328 4.014944 .069738C3.975093 .687422 3.975093 .707347 3.975093 .836862C3.975093 1.155666 3.975093 1.932752 4.801993 1.932752C5.987547 1.932752 6.465753 .109589 6.465753 0C6.465753-.069738 6.396015-.099626 6.356164-.099626C6.276463-.099626 6.256538-.049813 6.236613 .009963C5.997509 .71731 5.419676 .966376 5.070984 .966376C4.612702 .966376 4.463263 .697385 4.363636-.059776ZM2.480697-.139477C1.703611-.448319 1.364882-1.225405 1.364882-2.122042C1.364882-2.809465 1.62391-4.224159 2.381071-5.300125C3.108344-6.316314 4.044832-6.774595 4.772105-6.774595C5.768369-6.774595 6.495641-5.997509 6.495641-4.662516C6.495641-3.666252 5.987547-1.334994 4.313823-.398506C4.26401-.747198 4.164384-1.474471 3.437111-1.474471C2.909091-1.474471 2.420922-.976339 2.420922-.458281C2.420922-.259029 2.480697-.14944 2.480697-.139477ZM3.098381-.029888C2.958904-.029888 2.6401-.029888 2.6401-.458281C2.6401-.856787 3.01868-1.255293 3.437111-1.255293S4.044832-1.016189 4.044832-.408468C4.044832-.259029 4.034869-.249066 3.935243-.209215C3.676214-.099626 3.377335-.029888 3.098381-.029888Z'/>
<path id='g1-120' d='M3.327522-3.008717C3.387298-3.267746 3.616438-4.184309 4.313823-4.184309C4.363636-4.184309 4.60274-4.184309 4.811955-4.054795C4.533001-4.004981 4.333748-3.755915 4.333748-3.516812C4.333748-3.35741 4.443337-3.16812 4.712329-3.16812C4.931507-3.16812 5.250311-3.347447 5.250311-3.745953C5.250311-4.26401 4.662516-4.403487 4.323786-4.403487C3.745953-4.403487 3.39726-3.875467 3.277709-3.646326C3.028643-4.303861 2.49066-4.403487 2.201743-4.403487C1.165629-4.403487 .597758-3.118306 .597758-2.86924C.597758-2.769614 .697385-2.769614 .71731-2.769614C.797011-2.769614 .826899-2.789539 .846824-2.879203C1.185554-3.935243 1.843088-4.184309 2.181818-4.184309C2.371108-4.184309 2.719801-4.094645 2.719801-3.516812C2.719801-3.20797 2.550436-2.540473 2.181818-1.145704C2.022416-.52802 1.673724-.109589 1.235367-.109589C1.175592-.109589 .946451-.109589 .737235-.239103C.986301-.288917 1.205479-.498132 1.205479-.777086C1.205479-1.046077 .986301-1.125778 .836862-1.125778C.537983-1.125778 .288917-.86675 .288917-.547945C.288917-.089664 .787049 .109589 1.225405 .109589C1.882939 .109589 2.241594-.587796 2.271482-.647572C2.391034-.278954 2.749689 .109589 3.347447 .109589C4.373599 .109589 4.941469-1.175592 4.941469-1.424658C4.941469-1.524284 4.851806-1.524284 4.821918-1.524284C4.732254-1.524284 4.712329-1.484433 4.692403-1.414695C4.363636-.348692 3.686177-.109589 3.367372-.109589C2.978829-.109589 2.819427-.428394 2.819427-.767123C2.819427-.986301 2.879203-1.205479 2.988792-1.643836L3.327522-3.008717Z'/>
</defs>
<g id='page1' transform='matrix(2.331429 0 0 2.331429 0 0)'>
<rect x='211.631933' y='19.339136' width='284.844396' height='29.040788' fill='#242424'/>
<g fill='#f6f3e8'>
<use x='211.631933' y='36.55562' xlink:href='#g1-81'/>
<use x='222.27528' y='36.55562' xlink:href='#g3-61'/>
<use x='235.715195' y='24.102274' xlink:href='#g2-78'/>
<use x='232.879302' y='27.091051' xlink:href='#g5-89'/>
<use x='232.79136' y='48.310185' xlink:href='#g2-105'/>
<use x='235.610087' y='48.310185' xlink:href='#g4-61'/>
<use x='241.726071' y='48.310185' xlink:href='#g4-49'/>
<use x='247.357693' y='36.55562' xlink:href='#g1-120'/>
<use x='253.051625' y='38.05' xlink:href='#g2-105'/>
<use x='484.75357' y='36.55562' xlink:href='#g0-40'/>
<use x='488.626984' y='36.55562' xlink:href='#g0-49'/>
<use x='493.607088' y='36.55562' xlink:href='#g0-41'/>
</g>
</g>
</svg>