<?xml version='1.0' encoding='UTF-8'?>
<!-- This file was generated by dvisvgm 2.13.1 -->
<svg version='1.1' xmlns='http://www.w3.org/2000/svg' xmlns:xlink='http://www.w3.org/1999/xlink' width='667.176636pt' height='67.706523pt' viewBox='490.322461 45.087814 667.176636 67.706523'>
<defs>
<path id='g0-40' d='M3.158157-7.47198C3.01868-7.422167 2.839352-7.222914 2.719801-7.103362C1.494396-5.877958 .996264-4.184309 .996264-2.500623C.996264-.697385 1.58406 1.225405 3.048568 2.400996C3.098381 2.430884 3.158157 2.480697 3.217933 2.480697S3.307597 2.420922 3.307597 2.381071C3.307597 2.271482 3.038605 2.062267 2.929016 1.932752C1.902864 .707347 1.58406-.926526 1.58406-2.49066C1.58406-4.134496 1.912827-5.937733 3.148194-7.173101C3.20797-7.232877 3.307597-7.302615 3.307597-7.382316C3.307597-7.442092 3.257783-7.481943 3.198007-7.481943C3.188045-7.481943 3.16812-7.47198 3.158157-7.47198Z'/>
<path id='g0-41' d='M.617684-7.47198C.577833-7.452055 .557908-7.422167 .557908-7.392279C.557908-7.272727 .787049-7.103362 .896638-6.983811C1.96264-5.748443 2.281445-4.064757 2.281445-2.49066C2.281445-.886675 1.952677 .936488 .757161 2.132005C.687422 2.201743 .557908 2.30137 .557908 2.381071C.557908 2.430884 .607721 2.480697 .667497 2.480697H.67746C.797011 2.460772 .996264 2.251557 1.115816 2.132005C2.371108 .876712 2.86924-.816936 2.86924-2.510585C2.86924-4.343711 2.271482-6.166874 .816936-7.402242C.767123-7.43213 .71731-7.481943 .657534-7.481943C.647572-7.481943 .637609-7.481943 .617684-7.47198Z'/>
<path id='g0-49' d='M.896638-6.007472V-5.69863C1.325031-5.69863 1.803238-5.748443 2.191781-5.957659V-.757161C2.191781-.368618 1.8132-.308842 1.424658-.308842C1.255293-.308842 1.085928-.318804 .946451-.318804V-.009963H4.184309V-.318804C4.014944-.318804 3.845579-.308842 3.686177-.308842C3.287671-.308842 2.938979-.368618 2.938979-.747198V-6.485679C2.938979-6.575342 2.909091-6.645081 2.799502-6.645081C2.660025-6.645081 2.49066-6.455791 2.381071-6.37609C1.942715-6.087173 1.404732-6.007472 .896638-6.007472Z'/>
<path id='g4-49' d='M2.336239-4.435367C2.336239-4.623661 2.322291-4.630635 2.127024-4.630635C1.680697-4.191283 1.046077-4.184309 .760149-4.184309V-3.93325C.927522-3.93325 1.387796-3.93325 1.771357-4.128518V-.571856C1.771357-.341719 1.771357-.251059 1.073973-.251059H.808966V0C.934496-.006974 1.792279-.027895 2.050311-.027895C2.266501-.027895 3.145205-.006974 3.29863 0V-.251059H3.033624C2.336239-.251059 2.336239-.341719 2.336239-.571856V-4.435367Z'/>
<path id='g4-61' d='M5.355915-2.343213C5.460523-2.343213 5.620922-2.343213 5.620922-2.517559C5.620922-2.684932 5.453549-2.684932 5.362889-2.684932H.746202C.655542-2.684932 .488169-2.684932 .488169-2.517559C.488169-2.343213 .648568-2.343213 .753176-2.343213H5.355915ZM5.362889-.808966C5.453549-.808966 5.620922-.808966 5.620922-.976339C5.620922-1.150685 5.460523-1.150685 5.355915-1.150685H.753176C.648568-1.150685 .488169-1.150685 .488169-.976339C.488169-.808966 .655542-.808966 .746202-.808966H5.362889Z'/>
<path id='g5-88' d='M12.612702 13.947696L13.818182 10.759651H13.569116C13.180573 11.795766 12.124533 12.473225 10.978829 12.772105C10.769614 12.821918 9.793275 13.080946 7.880448 13.080946H1.872976L6.94396 7.13325C7.013699 7.053549 7.033624 7.023661 7.033624 6.973848C7.033624 6.953923 7.033624 6.924035 6.963885 6.824408L2.321295 .478207H7.780822C9.115816 .478207 10.022416 .617684 10.11208 .637609C10.650062 .71731 11.516812 .886675 12.303861 1.384807C12.552927 1.544209 13.230386 1.992528 13.569116 2.799502H13.818182L12.612702 0H.836862C.607721 0 .597758 .009963 .56787 .069738C.557908 .099626 .557908 .288917 .557908 .398506L5.828144 7.611457L.667497 13.65878C.56787 13.778331 .56787 13.828144 .56787 13.838107C.56787 13.947696 .657534 13.947696 .836862 13.947696H12.612702Z'/>
<path id='g2-78' d='M5.816189-4.002989C5.885928-4.267995 5.997509-4.498132 6.555417-4.51208C6.590286-4.51208 6.694894-4.519054 6.694894-4.665504C6.694894-4.707347 6.660025-4.763138 6.590286-4.763138C6.360149-4.763138 6.102117-4.735243 5.865006-4.735243C5.697634-4.735243 5.293151-4.763138 5.125778-4.763138C5.090909-4.763138 4.986301-4.763138 4.986301-4.609714C4.986301-4.519054 5.076961-4.51208 5.139726-4.51208C5.467497-4.505106 5.586052-4.400498 5.586052-4.226152C5.586052-4.170361 5.579078-4.135492 5.558157-4.05878L4.798007-1.018182L3.02665-4.644583C2.970859-4.763138 2.956912-4.763138 2.789539-4.763138H1.834122C1.701619-4.763138 1.610959-4.763138 1.610959-4.609714C1.610959-4.51208 1.694645-4.51208 1.841096-4.51208S2.140971-4.505106 2.287422-4.47721L1.352927-.746202C1.290162-.481196 1.171606-.27198 .627646-.251059C.578829-.251059 .481196-.244085 .481196-.104608C.481196-.027895 .536986 0 .585803 0C.81594 0 1.073973-.027895 1.311083-.027895C1.478456-.027895 1.882939 0 2.050311 0C2.12005 0 2.189788-.034869 2.189788-.146451C2.189788-.244085 2.106102-.251059 2.02939-.251059C1.590037-.265006 1.590037-.446326 1.590037-.54396C1.590037-.571856 1.590037-.606725 1.617933-.718306L2.510585-4.288917L4.546949-.118555C4.60274-.006974 4.630635 0 4.700374 0C4.811955 0 4.811955-.020922 4.846824-.146451L5.816189-4.002989Z'/>
<path id='g2-105' d='M2.259527-4.358655C2.259527-4.470237 2.175841-4.623661 1.980573-4.623661C1.792279-4.623661 1.590037-4.442341 1.590037-4.2401C1.590037-4.121544 1.680697-3.975093 1.868991-3.975093C2.071233-3.975093 2.259527-4.170361 2.259527-4.358655ZM.836862-.81594C.808966-.72528 .774097-.641594 .774097-.523039C.774097-.195268 1.053051 .069738 1.436613 .069738C2.133998 .069738 2.440847-.892653 2.440847-.99726C2.440847-1.08792 2.350187-1.08792 2.329265-1.08792C2.231631-1.08792 2.224658-1.046077 2.196762-.969365C2.036364-.411457 1.729514-.125529 1.457534-.125529C1.318057-.125529 1.283188-.216189 1.283188-.369614C1.283188-.530012 1.332005-.662516 1.39477-.81594C1.464508-1.004234 1.54122-1.192528 1.617933-1.373848C1.680697-1.54122 1.931756-2.175841 1.959651-2.259527C1.980573-2.329265 2.001494-2.412951 2.001494-2.48269C2.001494-2.810461 1.72254-3.075467 1.338979-3.075467C.648568-3.075467 .327771-2.127024 .327771-2.008468C.327771-1.917808 .425405-1.917808 .446326-1.917808C.54396-1.917808 .550934-1.952677 .571856-2.02939C.753176-2.629141 1.060025-2.880199 1.318057-2.880199C1.429639-2.880199 1.492403-2.824408 1.492403-2.636115C1.492403-2.475716 1.45056-2.371108 1.276214-1.93873L.836862-.81594Z'/>
<path id='g1-88' d='M4.83188-4.094645L3.995019-6.07721C3.965131-6.156912 3.945205-6.196762 3.945205-6.206725C3.945205-6.266501 4.11457-6.455791 4.533001-6.495641C4.632628-6.505604 4.732254-6.515567 4.732254-6.684932C4.732254-6.804483 4.612702-6.804483 4.582814-6.804483C4.174346-6.804483 3.745953-6.774595 3.327522-6.774595C3.078456-6.774595 2.460772-6.804483 2.211706-6.804483C2.15193-6.804483 2.032379-6.804483 2.032379-6.60523C2.032379-6.495641 2.132005-6.495641 2.261519-6.495641C2.859278-6.495641 2.919054-6.396015 3.008717-6.176837L4.184309-3.39726L2.082192-1.135741L1.952677-1.026152C1.464508-.498132 .996264-.33873 .488169-.308842C.358655-.298879 .268991-.298879 .268991-.109589C.268991-.099626 .268991 0 .398506 0C.697385 0 1.026152-.029888 1.334994-.029888C1.703611-.029888 2.092154 0 2.450809 0C2.510585 0 2.630137 0 2.630137-.199253C2.630137-.298879 2.530511-.308842 2.510585-.308842C2.420922-.318804 2.11208-.33873 2.11208-.617684C2.11208-.777086 2.261519-.936488 2.381071-1.066002L3.39726-2.141968L4.293898-3.118306L5.300125-.737235C5.339975-.627646 5.349938-.617684 5.349938-.597758C5.349938-.518057 5.160648-.348692 4.772105-.308842C4.662516-.298879 4.572852-.288917 4.572852-.119552C4.572852 0 4.682441 0 4.722291 0C5.001245 0 5.69863-.029888 5.977584-.029888C6.22665-.029888 6.834371 0 7.083437 0C7.153176 0 7.272727 0 7.272727-.18929C7.272727-.308842 7.173101-.308842 7.0934-.308842C6.425903-.318804 6.405978-.348692 6.236613-.747198C5.84807-1.673724 5.180573-3.227895 4.951432-3.825654C5.628892-4.523039 6.674969-5.708593 6.993773-5.987547C7.28269-6.22665 7.66127-6.465753 8.259029-6.495641C8.388543-6.505604 8.478207-6.505604 8.478207-6.694894C8.478207-6.704857 8.478207-6.804483 8.348692-6.804483C8.049813-6.804483 7.721046-6.774595 7.412204-6.774595C7.043587-6.774595 6.665006-6.804483 6.306351-6.804483C6.246575-6.804483 6.117061-6.804483 6.117061-6.60523C6.117061-6.535492 6.166874-6.505604 6.236613-6.495641C6.326276-6.485679 6.635118-6.465753 6.635118-6.1868C6.635118-6.047323 6.525529-5.917808 6.445828-5.828144L4.83188-4.094645Z'/>
<path id='g1-120' d='M3.327522-3.008717C3.387298-3.267746 3.616438-4.184309 4.313823-4.184309C4.363636-4.184309 4.60274-4.184309 4.811955-4.054795C4.533001-4.004981 4.333748-3.755915 4.333748-3.516812C4.333748-3.35741 4.443337-3.16812 4.712329-3.16812C4.931507-3.16812 5.250311-3.347447 5.250311-3.745953C5.250311-4.26401 4.662516-4.403487 4.323786-4.403487C3.745953-4.403487 3.39726-3.875467 3.277709-3.646326C3.028643-4.303861 2.49066-4.403487 2.201743-4.403487C1.165629-4.403487 .597758-3.118306 .597758-2.86924C.597758-2.769614 .697385-2.769614 .71731-2.769614C.797011-2.769614 .826899-2.789539 .846824-2.879203C1.185554-3.935243 1.843088-4.184309 2.181818-4.184309C2.371108-4.184309 2.719801-4.094645 2.719801-3.516812C2.719801-3.20797 2.550436-2.540473 2.181818-1.145704C2.022416-.52802 1.673724-.109589 1.235367-.109589C1.175592-.109589 .946451-.109589 .737235-.239103C.986301-.288917 1.205479-.498132 1.205479-.777086C1.205479-1.046077 .986301-1.125778 .836862-1.125778C.537983-1.125778 .288917-.86675 .288917-.547945C.288917-.089664 .787049 .109589 1.225405 .109589C1.882939 .109589 2.241594-.587796 2.271482-.647572C2.391034-.278954 2.749689 .109589 3.347447 .109589C4.373599 .109589 4.941469-1.175592 4.941469-1.424658C4.941469-1.524284 4.851806-1.524284 4.821918-1.524284C4.732254-1.524284 4.712329-1.484433 4.692403-1.414695C4.363636-.348692 3.686177-.109589 3.367372-.109589C2.978829-.109589 2.819427-.428394 2.819427-.767123C2.819427-.986301 2.879203-1.205479 2.988792-1.643836L3.327522-3.008717Z'/>
<path id='g3-22' d='M4.283935-5.569116V-5.877958H.687422V-5.569116H4.283935Z'/>
<path id='g3-61' d='M6.844334-3.257783C6.993773-3.257783 7.183064-3.257783 7.183064-3.457036S6.993773-3.656289 6.854296-3.656289H.886675C.747198-3.656289 .557908-3.656289 .557908-3.457036S.747198-3.257783 .896638-3.257783H6.844334ZM6.854296-1.325031C6.993773-1.325031 7.183064-1.325031 7.183064-1.524284S6.993773-1.723537 6.844334-1.723537H.896638C.747198-1.723537 .557908-1.723537 .557908-1.524284S.747198-1.325031 .886675-1.325031H6.854296Z'/>
</defs>
<g id='page1' transform='matrix(2.331429 0 0 2.331429 0 0)'>
<rect x='210.309879' y='19.339136' width='286.166449' height='29.040788' fill='#242424'/>
<g fill='#f6f3e8'>
<use x='213.167237' y='34.037292' xlink:href='#g3-22'/>
<use x='210.309879' y='36.55562' xlink:href='#g1-88'/>
<use x='222.112756' y='36.55562' xlink:href='#g3-61'/>
<use x='236.294959' y='24.102274' xlink:href='#g2-78'/>
<use x='232.628836' y='27.091051' xlink:href='#g5-88'/>
<use x='233.371124' y='48.310185' xlink:href='#g2-105'/>
<use x='236.189851' y='48.310185' xlink:href='#g4-61'/>
<use x='242.305834' y='48.310185' xlink:href='#g4-49'/>
<use x='248.679744' y='36.55562' xlink:href='#g1-120'/>
<use x='254.373676' y='38.05' xlink:href='#g2-105'/>
<use x='484.75357' y='36.55562' xlink:href='#g0-40'/>
<use x='488.626984' y='36.55562' xlink:href='#g0-49'/>
<use x='493.607088' y='36.55562' xlink:href='#g0-41'/>
</g>
</g>
</svg>