id,timestamp,a,b,c,area,perimetro
0,2024-06-13 20:49:49.437378,96.11298700858119,42.892215695629595,99.28275867133226,21.83061892734803,238.28796137554303
1,2024-06-13 20:49:49.437462,60.7762675843922,90.28155160599182,72.17546556714852,21.129755547924947,223.23328475753254
2,2024-06-13 20:49:49.437495,44.282944695678246,2.451063984658471,44.67201104742391,13.520800252038384,91.40601972776062
3,2024-06-13 20:49:49.437526,83.37410907896206,24.362603569828206,107.52954660415645,20.74927754178187,215.26625925294672
4,2024-06-13 20:49:49.437557,81.67259040073705,51.011530802701174,70.52755254970813,20.159944134503267,203.21167375314636
5,2024-06-13 20:49:49.437588,76.36894093553045,11.508774171760475,69.6290592800982,17.748621038682927,157.50677438738913
6,2024-06-13 20:49:49.437613,7.701881580988332,55.721961214853806,56.138911874594946,15.463683563138318,119.56275467043709
7,2024-06-13 20:49:49.437640,24.13436652038635,18.071615822867546,16.361563123000376,10.82289660546143,58.56754546625427
8,2024-06-13 20:49:49.437672,27.849591413396958,93.35160732150153,89.48194749762543,20.52720858921271,210.68314623252394
9,2024-06-13 20:49:49.437704,70.61798517247372,94.44390621911029,33.74366923095785,19.94018859602596,198.80556062254186
