[
    {
        "id": 0,
        "nombre": "Danilo",
        "edad": -56
    },
    {
        "id": 1,
        "nombre": "Azuzena",
        "edad": 37
    },
    {
        "id": 2,
        "nombre": "Laura",
        "edad": 180
    },
    {
        "id": 3,
        "nombre": "Mickey",
        "edad": 77
    },
    {
        "id": 4,
        "nombre": "Jhonny",
        "edad": -1
    },
    {
        "id": 5,
        "nombre": "Craby",
        "edad": 35
    },
    {
        "id": 6,
        "nombre": "Pepin",
        "edad": 10
    },
    {
        "id": 7,
        "nombre": "Isaura",
        "edad": 7
    },
    {
        "id": 8,
        "nombre": "Norma",
        "edad": 14
    },
    {
        "id": 9,
        "nombre": "Pericles",
        "edad": 22
    },
    {
        "id": 10,
        "nombre": "Josefina",
        "edad": 26
    },
    {
        "id": 11,
        "nombre": "Cuahtemoc",
        "edad": 9
    }
]